…
    ## See https://quanteda.io for tutorials and examples.

    ## 
    ## Attaching package: 'quanteda'

    ## The following object is masked from 'package:utils':
    ## 
    ##     View

``` r
ica_raw <- rio::import('70th Annual ICA Conference_29FEB2020.csv') %>% as_tibble
ica_raw
```

    ## # A tibble: 2,882 x 19
    ##    `Session or Eve… `Session or Eve… `Session or Eve… `Session or Eve…
    ##    <chr>            <chr>            <chr>            <chr>           
    ##  1 ICA Executive C… Business Meeting Sponsored Sessi… 19-May-2020     
    ##  2 Board of Direct… Breakfast        Sponsored Sessi… 20-May-2020     
    ##  3 Annual ICA Boar… Business Meeting Sponsored Sessi… 20-May-2020     
    ##  4 Board meeting l… Reception        Sponsored Sessi… 20-May-2020     
    ##  5 Volunteer Orien… Meeting          Sponsored Sessi… 20-May-2020     
    ##  6 Annual ICA Boar… Business Meeting Sponsored Sessi… 21-May-2020     
    ##  7 ICA Inclusion, … Meeting          Sponsored Sessi… 21-May-2020     
    ##  8 WELCOME TO COUN… Panel Session    Sponsored Sessi… 21-May-2020     
    ##  9 OPENING RECEPTI… Reception        Sponsored Sessi… 21-May-2020     
    ## 10 OPENING RECEPTI… Reception        Sponsored Sessi… 21-May-2020     
    ## # … with 2,872 more rows, and 15 more variables: `Session or Event Start
    ## #   Time` <chr>, `Session or Event End Time` <chr>, `Session or Event
    ## #   Location` <chr>, `Session or Event Details` <chr>, `Session or Event
    ## #   Participants/Hosts` <chr>, `Submission or Placeholder Title` <chr>,
    ## #   `Submission or Placeholder Start Time` <chr>, `Submission or Placeholder
    ## #   End Time` <chr>, `Submission Presenter Name` <chr>, `Submission
    ## #   Authors` <chr>, `Submission Status` <chr>, `Institutions All` <chr>,
    ## #   `Submission Body` <chr>, `Session Submission Sort Order` <int>, `The
    ## #   Program Report was last updated February 29, 2020 at 12:13 AM EST. To view
…
